{
  "project_info": {
    "project_number": "777261835716",
    "project_id": "tolua-study",
    "storage_bucket": "tolua-study.appspot.com"
  },
  "client": [
    {
      "client_info": {
        "mobilesdk_app_id": "1:777261835716:android:53650c9d7b2a6f44aef091",
        "android_client_info": {
          "package_name": "com.DefaultCompany.ToLua_study"
        }
      },
      "oauth_client": [
        {
          "client_id": "777261835716-lvmh0afn3d6ufh9grln4i5vtuv30gn6e.apps.googleusercontent.com",
          "client_type": 1,
          "android_info": {
            "package_name": "com.DefaultCompany.ToLua_study",
            "certificate_hash": "21031cf033c15bdb84acdbf0ac1c4f7e2fa7c305"
          }
        },
        {
          "client_id": "777261835716-i7oeg543bbkbensmafcnh55mb4t7c81c.apps.googleusercontent.com",
          "client_type": 3
        }
      ],
      "api_key": [
        {
          "current_key": "AIzaSyBEJrzdWfY7gYfieA15p-FitrPm-ij4P6Q"
        }
      ],
      "services": {
        "appinvite_service": {
          "other_platform_oauth_client": [
            {
              "client_id": "777261835716-i7oeg543bbkbensmafcnh55mb4t7c81c.apps.googleusercontent.com",
              "client_type": 3
            }
          ]
        }
      }
    }
  ],
  "configuration_version": "1"
}